
Program received signal SIGSEGV: Segmentation fault - invalid memory reference.

Program received signal SIGSEGV: Segmentation fault - invalid memory reference.

Backtrace for this error:

Backtrace for this error:

Program received signal SIGSEGV: Segmentation fault - invalid memory reference.

Backtrace for this error:

Program received signal SIGSEGV: Segmentation fault - invalid memory reference.

Backtrace for this error:

Program received signal SIGSEGV: Segmentation fault - invalid memory reference.

Backtrace for this error:

Program received signal SIGSEGV: Segmentation fault - invalid memory reference.

Backtrace for this error:

Program received signal SIGSEGV: Segmentation fault - invalid memory reference.

Backtrace for this error:

Program received signal SIGSEGV: Segmentation fault - invalid memory reference.

Backtrace for this error:
#0  0x7f48a4c488da
#0  0x7fd96cb8e8da
#1  0x7fd96cb8dae3
#2  0x7fd96c7e583f
#3  0x7fd96c90ab0d
#4  0x55b652f8d560
#5  0x55b652f99a63
#6  0x55b652f8c40e
#7  0x7fd96c7d209a
#8  0x55b652f8c449
#9  0xffffffffffffffff
#1  0x7f48a4c47ae3
#2  0x7f48a489f83f
#3  0x7f48a49c4b0d
#4  0x55ef49083560
#5  0x55ef4908fa63
#6  0x55ef4908240e
#7  0x7f48a488c09a
#8  0x55ef49082449
#9  0xffffffffffffffff
#0  0x7efc54a298da
#1  0x7efc54a28ae3
#2  0x7efc5468083f
#3  0x7efc547a5b0d
#4  0x55c0926e7560
#5  0x55c0926f3a63
#6  0x55c0926e640e
#7  0x7efc5466d09a
#8  0x55c0926e6449
#9  0xffffffffffffffff
#0  0x7f3d943d28da
#1  0x7f3d943d1ae3
#2  0x7f3d9402983f
#3  0x7f3d9414eb0d
#4  0x55ea27397560
#5  0x55ea273a3a63
#6  0x55ea2739640e
#7  0x7f3d9401609a
#8  0x55ea27396449
#9  0xffffffffffffffff
--------------------------------------------------------------------------
Primary job  terminated normally, but 1 process returned
a non-zero exit code. Per user-direction, the job has been aborted.
--------------------------------------------------------------------------
#0  0x7f12f812b8da
#1  0x7f12f812aae3
#2  0x7f12f7d8283f
#3  0x7f12f7ea7b0d
#4  0x55844c6b3560
#5  0x55844c6bfa63
#6  0x55844c6b240e
#7  0x7f12f7d6f09a
#8  0x55844c6b2449
#9  0xffffffffffffffff
--------------------------------------------------------------------------
mpirun noticed that process rank 8 with PID 0 on node instance-102 exited on signal 11 (Segmentation fault).
--------------------------------------------------------------------------
